<?xml version="1.0" encoding="UTF-8" standalone="no"?>
<!-- Created with Inkscape (http://www.inkscape.org/) -->

<svg
   width="32"
   height="32"
   viewBox="0 0 8.4666665 8.4666669"
   version="1.1"
   id="svg5"
   inkscape:version="1.1.2 (0a00cf5339, 2022-02-04)"
   sodipodi:docname="antergos.svg"
   inkscape:export-filename="/home/tgy-tutorials/Scrivania/antergos.png"
   inkscape:export-xdpi="96"
   inkscape:export-ydpi="96"
   xmlns:inkscape="http://www.inkscape.org/namespaces/inkscape"
   xmlns:sodipodi="http://sodipodi.sourceforge.net/DTD/sodipodi-0.dtd"
   xmlns="http://www.w3.org/2000/svg"
   xmlns:svg="http://www.w3.org/2000/svg">
  <sodipodi:namedview
     id="namedview7"
     pagecolor="#8c8c8c"
     bordercolor="#666666"
     borderopacity="1.0"
     inkscape:pageshadow="2"
     inkscape:pageopacity="0"
     inkscape:pagecheckerboard="0"
     inkscape:document-units="px"
     showgrid="false"
     units="px"
     inkscape:showpageshadow="false"
     inkscape:zoom="8"
     inkscape:cx="-9"
     inkscape:cy="2.9375"
     inkscape:window-width="1920"
     inkscape:window-height="996"
     inkscape:window-x="0"
     inkscape:window-y="28"
     inkscape:window-maximized="1"
     inkscape:current-layer="layer1" />
  <defs
     id="defs2">
    <linearGradient
       id="a"
       gradientTransform="matrix(4.8477747,0,0,4.8479999,-3.3589671,-7.6451138)"
       gradientUnits="userSpaceOnUse"
       x1="-3.7999998e-05"
       x2="0.99996197"
       y1="0.5"
       y2="0.5">
      <stop
         offset="0"
         stop-color="#00c6ff"
         id="stop2" />
      <stop
         offset=".98695652174"
         stop-color="#0072ff"
         id="stop4" />
    </linearGradient>
  </defs>
  <g
     inkscape:label="Livello 1"
     inkscape:groupmode="layer"
     id="layer1">
    <path
       id="path845"
       style="fill:#e6e6e6;stroke-width:0.629211"
       d="M 4.2334407,0.90857917 A 3.3247541,3.3247541 0 0 0 0.90857917,4.2334407 3.3247541,3.3247541 0 0 0 4.2334407,7.5583023 3.3247541,3.3247541 0 0 0 7.5583023,4.2334407 3.3247541,3.3247541 0 0 0 4.2334407,0.90857917 Z m 0.012402,1.17822263 h 5.167e-4 c 0,0 0.1071248,1.38e-5 0.1999877,0.00258 0.067687,0.00187 -0.021225,0.1434444 -0.043925,0.2118735 -0.034964,0.1054034 -0.0914,0.202986 -0.1410769,0.3023071 C 4.1955782,2.7350574 4.1282719,2.865514 4.053606,2.9921692 3.984613,3.1091987 3.9123741,3.2248035 3.8319143,3.3342671 3.7200183,3.4864977 3.5974805,3.6308122 3.4701791,3.7704162 3.3913471,3.8568662 3.3082554,3.9398401 3.2216155,4.0184631 3.1251845,4.1059711 3.0430022,4.1699857 2.9203419,4.2670267 2.8000287,4.3622107 2.6925139,4.4490602 2.5508555,4.5419453 2.4278417,4.6226051 2.3527387,4.6994654 2.1958384,4.8034281 2.1663504,4.8229662 2.1262944,4.7108211 2.1214244,4.6757873 2.1064944,4.5686439 2.0995294,4.4704088 2.0950694,4.367279 c -0.00511,-0.1183903 -0.00797,-0.2373022 0,-0.3555339 0.00896,-0.1328545 0.019899,-0.2670585 0.053744,-0.3958414 0.0315,-0.119867 0.057023,-0.2474836 0.1374593,-0.3451986 C 2.3289797,3.2188261 2.4769658,3.1992561 2.5710098,3.1601176 2.6726987,3.1177986 2.773265,3.0729206 2.8728002,3.0257588 2.9953658,2.9676838 3.1188945,2.9102022 3.2366023,2.8428242 3.3730302,2.7647292 3.5038259,2.677409 3.6324436,2.587026 3.7448632,2.508026 3.8537175,2.4239059 3.9600723,2.3369119 4.0580393,2.2567779 4.245843,2.0867981 4.245843,2.0867981 Z m 0.5818766,0.064595 c 0.1042398,-0.010229 0.160587,0.3163721 0.214457,0.4847251 0.055273,0.172735 0.084236,0.3531972 0.1095542,0.5327839 0.025249,0.1791066 0.037305,0.3602457 0.042375,0.5410523 0.0057,0.2034398 0.0025,0.4074034 -0.013436,0.6102986 -0.01648,0.2098841 -0.045078,0.4196595 -0.085266,0.6263184 -0.049234,0.2531797 -0.1258279,0.5308158 -0.190686,0.749825 -0.077333,0.2611343 -0.2475302,0.6500895 -0.2475302,0.6500895 0,0 -0.2899293,0.030785 -0.4356322,0.033073 -0.098479,0.00155 -0.1978832,-0.00102 -0.2955893,-0.013436 C 3.7967372,6.3497122 3.6672382,6.3269365 3.5435603,6.2860286 3.4405125,6.2519442 3.340953,6.2055925 3.247971,6.1496028 3.1757879,6.1061378 3.0469498,5.9961238 3.0469498,5.9961238 c 0,0 0.3023286,-0.3108084 0.4330486,-0.4831746 C 3.5729384,5.3903976 3.6513032,5.2571208 3.7280453,5.1238256 3.8398153,4.9296884 3.9413045,4.7297171 4.0365534,4.5269628 4.1387958,4.309324 4.2360371,4.0883932 4.3181899,3.8624039 4.4267416,3.563795 4.506274,3.2554123 4.5967261,2.9508317 4.6757092,2.6848715 4.7239467,2.1615752 4.8277193,2.1513968 Z m 0.5782591,0.2583823 c 0.037322,-0.00535 0.1725065,0.1274027 0.2511475,0.1999877 0.067236,0.062058 0.1288894,0.1303155 0.1875856,0.2005046 0.078395,0.093746 0.1536031,0.190547 0.2185911,0.2940389 0.055072,0.0877 0.1016444,0.1810164 0.1441773,0.2754354 0.050433,0.1119528 0.1027853,0.224725 0.1312582,0.344165 0.028214,0.1183257 0.035504,0.2411469 0.037724,0.3627686 0.00286,0.1567562 -0.00719,0.3143399 -0.031523,0.4692219 -0.030697,0.1953814 -0.091431,0.384918 -0.1436603,0.5756755 -0.020437,0.074641 -0.041684,0.1528153 -0.066146,0.2227254 -0.02662,0.076074 -0.038524,0.1621428 -0.093534,0.1550293 C 6.0047618,5.5045674 6.0219208,5.3690419 6.0157608,5.2984916 6.0064008,5.1913158 6.0063508,5.0833771 5.9992248,4.9760306 5.9894948,4.8295163 5.9793988,4.6832782 5.9635678,4.5372977 5.9401836,4.3217521 5.9163156,4.105869 5.8757176,3.892893 5.8463521,3.7388379 5.8072559,3.5865476 5.7630631,3.4360734 5.7012712,3.2256733 5.630197,3.0175286 5.5501561,2.8133724 5.4914678,2.6636819 5.3024775,2.4246094 5.4059784,2.4097791 Z" />
  </g>
  <style
     type="text/css"
     id="style884">
	.st0{fill:#FFFFFF;}
	.st1{fill:#69B53F;}
	.st2{fill:#F8F8F8;}
</style>
</svg>
